{
  "images" : [
    {
      "filename" : "Screenshot 2020-06-03 at 12.47.49 AM.png",
      "idiom" : "universal",
      "scale" : "1x"
    },
    {
      "filename" : "Screenshot 2020-06-03 at 12.47.49 AM-1.png",
      "idiom" : "universal",
      "scale" : "2x"
    },
    {
      "filename" : "Screenshot 2020-06-03 at 12.47.49 AM-2.png",
      "idiom" : "universal",
      "scale" : "3x"
    }
  ],
  "info" : {
    "author" : "xcode",
    "version" : 1
  }
}
